…
After that, I group by temperature, and compute the mean value of
arrival delays. Then arrange the mean arrival delays descending.

``` r
temp_df = newdf %>% 
  group_by(temp) %>% 
  summarise(arr_delay_mean = mean(arr_delay, na.rm = TRUE)) %>% 
  drop_na() %>% 
  arrange(desc(arr_delay_mean))

temp_df
```

    ## # A tibble: 168 x 2
    ##     temp arr_delay_mean
    ##    <dbl>          <dbl>
    ##  1  19.4          114. 
    ##  2  87.8           89.9
    ##  3  89.6           87.8
    ##  4  13.1           74.3
    ##  5  21.2           64.8
    ##  6  82.4           52.7
    ##  7  30.2           48.9
    ##  8  26.6           47.3
    ##  9  93.2           44.3
    ## 10  33.8           43.7
    ## # ... with 158 more rows
…
Next, let’s see how humidity affects the delays. Group by humidity, and
compute the mean value of arrival delays. Then arrange the mean arrival
delays descending.

``` r
humid_df = newdf %>% 
  group_by(humid) %>% 
  summarise(arr_delay_mean = mean(arr_delay, na.rm = TRUE)) %>% 
  drop_na() %>% 
  arrange(desc(arr_delay_mean))

humid_df
```

    ## # A tibble: 2,440 x 2
    ##    humid arr_delay_mean
    ##    <dbl>          <dbl>
    ##  1  71.6           179.
    ##  2  93.6           153.
    ##  3  86.1           152.
    ##  4  40.0           128.
    ##  5  96.4           120 
    ##  6  96.5           120.
    ##  7  93.0           116.
    ##  8  95.7           115.
    ##  9  93.6           114.
    ## 10  96.1           113.
    ## # ... with 2,430 more rows
…
