…
    ## Warning: package 'ggplot2' was built under R version 4.0.5

## Question 1

How many flights have a missing dep\_time? What other variables are
missing? What might these rows represent?

``` r
filter(flights, is.na(dep_time))
```

    ## # A tibble: 8,255 x 19
    ##     year month   day dep_time sched_dep_time dep_delay arr_time sched_arr_time
    ##    <int> <int> <int>    <int>          <int>     <dbl>    <int>          <int>
    ##  1  2013     1     1       NA           1630        NA       NA           1815
    ##  2  2013     1     1       NA           1935        NA       NA           2240
    ##  3  2013     1     1       NA           1500        NA       NA           1825
    ##  4  2013     1     1       NA            600        NA       NA            901
    ##  5  2013     1     2       NA           1540        NA       NA           1747
    ##  6  2013     1     2       NA           1620        NA       NA           1746
    ##  7  2013     1     2       NA           1355        NA       NA           1459
    ##  8  2013     1     2       NA           1420        NA       NA           1644
    ##  9  2013     1     2       NA           1321        NA       NA           1536
    ## 10  2013     1     2       NA           1545        NA       NA           1910
    ## # ... with 8,245 more rows, and 11 more variables: arr_delay <dbl>,
    ## #   carrier <chr>, flight <int>, tailnum <chr>, origin <chr>, dest <chr>,
    ## #   air_time <dbl>, distance <dbl>, hour <dbl>, minute <dbl>, time_hour <dttm>
…
**To get the departure times in the number of minutes since midnight, we
need to divide dep\_time by 100 to get the hours. Then multiply by 60
and add the remainder of dep\_time divided by 100.**

**Note: When the time is 24:00, there is 1440 minutes since midnight,
but it should be 0. We need to deal with it by using %%1440 to convert
24:00 be zero.**

**Show only relevant columns**

``` r
select(flight_time, dep_time, dep_time_mins, sched_dep_time,sched_dep_time_mins)
```

    ## # A tibble: 336,776 x 4
    ##    dep_time dep_time_mins sched_dep_time sched_dep_time_mins
    ##       <int>         <dbl>          <int>               <dbl>
    ##  1      517           317            515                 315
    ##  2      533           333            529                 329
    ##  3      542           342            540                 340
    ##  4      544           344            545                 345
    ##  5      554           354            600                 360
    ##  6      554           354            558                 358
    ##  7      555           355            600                 360
    ##  8      557           357            600                 360
    ##  9      557           357            600                 360
    ## 10      558           358            600                 360
    ## # ... with 336,766 more rows
…
